{
  "version": 1,
  "license": "CC-BY-SA-3.0",
  "copyright": "Made by @cilimanjaro for skyperster14",
  "size": {
    "x": 32,
    "y": 32
  },
  "states": [
    {
      "name": "brain"
    },
    {
      "name": "heart"
    },
    {
      "name": "lung-l"
    },
    {
      "name": "lung-r"
    },
    {
      "name": "stomach"
    }
  ]
}
