{
  "version": 1,
  "license": "CC-BY-SA-3.0",
  "copyright": "Literally a screenshot from Lost Paradise",
  "size": {
    "x": 366,
    "y": 80
  },
  "states": [
    {
      "name": "flavor"
    }
  ]
}
