{
  "version": 1,
  "license": "CC-BY-SA-3.0",
  "copyright": "https://github.com/Skyrat-SS13/Skyrat-tg/tree/40e3cdbb15b8bc0d5ef2fb46133adf805bda5297, while Argali, Ayrshire, Myrsore and Bighorn are drawn by Ubaser, and Kobold Ears are drawn by Pigeonpeas. Body_underbelly made by Nairod(github) for SS14. Large drawn by Ubaser. Wagging tail by SonicDC. Splotch modified from Sharp by KittenColony(github). Frills neckfull come from: https://github.com/Bubberstation/Bubberstation/commit/8bc6b83404803466a560b694bf22ef3c0ac266a2",
  "size": {
    "x": 32,
    "y": 32
  },
  "states": [
    {
      "name": "tail_smooth_front",
      "directions": 4
    },
    {
      "name": "tail_large_front",
      "directions": 4
    },
    {
      "name": "tail_spikes_front",
      "directions": 4
    },
    {
      "name": "tail_dtiger_front",
      "directions": 4
    },
    {
      "name": "tail_ltiger_front",
      "directions": 4
    },
    {
      "name": "tail_smooth_behind_primary",
      "directions": 4
    },
    {
      "name": "tail_smooth_behind_secondary",
      "directions": 4
    },
    {
      "name": "tail_smooth_behind",
      "directions": 4
    },
    {
      "name": "tail_large_behind",
      "directions": 4
    },
    {
      "name": "tail_spikes_behind",
      "directions": 4
    },
    {
      "name": "tail_dtiger_behind",
      "directions": 4
    },
    {
      "name": "tail_ltiger_behind",
      "directions": 4
    },
    {
      "name": "tail_smooth_primary",
      "directions": 4
    },
    {
      "name": "tail_smooth_secondary",
      "directions": 4
    },
    {
      "name": "tail_smooth",
      "directions": 4
    },
    {
      "name": "tail_large",
      "directions": 4
    },
    {
      "name": "tail_spikes",
      "directions": 4
    },
    {
      "name": "tail_dtiger",
      "directions": 4
    },
    {
      "name": "tail_ltiger",
      "directions": 4
    },
    {
      "name": "tail_smooth_wagging_primary",
      "directions": 4,
      "delays": [
        [
          0.1,
          0.1,
          0.1,
          0.1,
          0.1,
          0.1,
          0.1,
          0.1,
          0.1,
          0.1,
          0.1,
          0.1,
          0.1,
          0.1,
          0.1,
          0.1
        ],
        [
          0.1,
          0.1,
          0.1,
          0.1,
          0.1,
          0.1,
          0.1,
          0.1,
          0.1,
          0.1,
          0.1,
          0.1,
          0.1,
          0.1,
          0.1,
          0.1
        ],
        [
          0.1,
          0.1,
          0.1,
          0.1,
          0.1,
          0.1,
          0.1,
          0.1,
          0.1,
          0.1,
          0.1,
          0.1,
          0.1,
          0.1,
          0.1,
          0.1
        ],
        [
          0.1,
          0.1,
          0.1,
          0.1,
          0.1,
          0.1,
          0.1,
          0.1,
          0.1,
          0.1,
          0.1,
          0.1,
          0.1,
          0.1,
          0.1,
          0.1
        ]
      ]
    },
    {
      "name": "tail_smooth_wagging_secondary",
      "directions": 4,
      "delays": [
        [
          0.1,
          0.1,
          0.1,
          0.1,
          0.1,
          0.1,
          0.1,
          0.1,
          0.1,
          0.1,
          0.1,
          0.1,
          0.1,
          0.1,
          0.1,
          0.1
        ],
        [
          0.1,
          0.1,
          0.1,
          0.1,
          0.1,
          0.1,
          0.1,
          0.1,
          0.1,
          0.1,
          0.1,
          0.1,
          0.1,
          0.1,
          0.1,
          0.1
        ],
        [
          0.1,
          0.1,
          0.1,
          0.1,
          0.1,
          0.1,
          0.1,
          0.1,
          0.1,
          0.1,
          0.1,
          0.1,
          0.1,
          0.1,
          0.1,
          0.1
        ],
        [
          0.1,
          0.1,
          0.1,
          0.1,
          0.1,
          0.1,
          0.1,
          0.1,
          0.1,
          0.1,
          0.1,
          0.1,
          0.1,
          0.1,
          0.1,
          0.1
        ]
      ]
    },
    {
      "name": "tail_dtiger_wagging",
      "directions": 4,
      "delays": [
        [
          0.1,
          0.1,
          0.1,
          0.1,
          0.1,
          0.1,
          0.1,
          0.1,
          0.1,
          0.1,
          0.1,
          0.1,
          0.1,
          0.1,
          0.1,
          0.1
        ],
        [
          0.1,
          0.1,
          0.1,
          0.1,
          0.1,
          0.1,
          0.1,
          0.1,
          0.1,
          0.1,
          0.1,
          0.1,
          0.1,
          0.1,
          0.1,
          0.1
        ],
        [
          0.1,
          0.1,
          0.1,
          0.1,
          0.1,
          0.1,
          0.1,
          0.1,
          0.1,
          0.1,
          0.1,
          0.1,
          0.1,
          0.1,
          0.1,
          0.1
        ],
        [
          0.1,
          0.1,
          0.1,
          0.1,
          0.1,
          0.1,
          0.1,
          0.1,
          0.1,
          0.1,
          0.1,
          0.1,
          0.1,
          0.1,
          0.1,
          0.1
        ]
      ]
    },
    {
      "name": "tail_ltiger_wagging",
      "directions": 4,
      "delays": [
        [
          0.1,
          0.1,
          0.1,
          0.1,
          0.1,
          0.1,
          0.1,
          0.1,
          0.1,
          0.1,
          0.1,
          0.1,
          0.1,
          0.1,
          0.1,
          0.1
        ],
        [
          0.1,
          0.1,
          0.1,
          0.1,
          0.1,
          0.1,
          0.1,
          0.1,
          0.1,
          0.1,
          0.1,
          0.1,
          0.1,
          0.1,
          0.1,
          0.1
        ],
        [
          0.1,
          0.1,
          0.1,
          0.1,
          0.1,
          0.1,
          0.1,
          0.1,
          0.1,
          0.1,
          0.1,
          0.1,
          0.1,
          0.1,
          0.1,
          0.1
        ],
        [
          0.1,
          0.1,
          0.1,
          0.1,
          0.1,
          0.1,
          0.1,
          0.1,
          0.1,
          0.1,
          0.1,
          0.1,
          0.1,
          0.1,
          0.1,
          0.1
        ]
      ]
    },
    {
      "name": "tail_spikes_wagging",
      "directions": 4,
      "delays": [
        [
          0.1,
          0.1,
          0.1,
          0.1,
          0.1,
          0.1,
          0.1,
          0.1,
          0.1,
          0.1,
          0.1,
          0.1,
          0.1,
          0.1,
          0.1,
          0.1
        ],
        [
          0.1,
          0.1,
          0.1,
          0.1,
          0.1,
          0.1,
          0.1,
          0.1,
          0.1,
          0.1,
          0.1,
          0.1,
          0.1,
          0.1,
          0.1,
          0.1
        ],
        [
          0.1,
          0.1,
          0.1,
          0.1,
          0.1,
          0.1,
          0.1,
          0.1,
          0.1,
          0.1,
          0.1,
          0.1,
          0.1,
          0.1,
          0.1,
          0.1
        ],
        [
          0.1,
          0.1,
          0.1,
          0.1,
          0.1,
          0.1,
          0.1,
          0.1,
          0.1,
          0.1,
          0.1,
          0.1,
          0.1,
          0.1,
          0.1,
          0.1
        ]
      ]
    },
    {
      "name": "snout_round",
      "directions": 4
    },
    {
      "name": "snout_roundlight",
      "directions": 4
    },
    {
      "name": "snout_sharp",
      "directions": 4
    },
    {
      "name": "snout_sharplight",
      "directions": 4
    },
    {
      "name": "horns_simple",
      "directions": 4
    },
    {
      "name": "horns_short",
      "directions": 4
    },
    {
      "name": "horns_curled",
      "directions": 4
    },
    {
      "name": "horns_ram",
      "directions": 4
    },
    {
      "name": "horns_angler",
      "directions": 4
    },
    {
      "name": "frills_simple",
      "directions": 4
    },
    {
      "name": "frills_short",
      "directions": 4
    },
    {
      "name": "frills_aquatic",
      "directions": 4
    },
    {
      "name": "frills_divinity",
      "directions": 4
    },
    {
      "name": "horns_double",
      "directions": 4
    },
    {
      "name": "frills_axolotl",
      "directions": 4
    },
    {
      "name": "frills_hood_primary",
      "directions": 4
    },
    {
      "name": "frills_hood_secondary",
      "directions": 4
    },
    {
      "name": "frills_big",
      "directions": 4
    },
    {
      "name": "body_tiger",
      "directions": 4
    },
    {
      "name": "head_tiger",
      "directions": 4
    },
    {
      "name": "l_arm_tiger",
      "directions": 4
    },
    {
      "name": "l_leg_tiger",
      "directions": 4
    },
    {
      "name": "r_arm_tiger",
      "directions": 4
    },
    {
      "name": "horns_argali",
      "directions": 4
    },
    {
      "name": "horns_ayrshire",
      "directions": 4
    },
    {
      "name": "horns_myrsore",
      "directions": 4
    },
    {
      "name": "horns_bighorn",
      "directions": 4
    },
    {
      "name": "horns_demonic",
      "directions": 4
    },
    {
      "name": "horns_kobold_ears",
      "directions": 4
    },
    {
      "name": "r_leg_tiger",
      "directions": 4
    },
    {
      "name": "horns_floppy_kobold_ears",
      "directions": 4
    },
    {
      "name": "body_underbelly",
      "directions": 4
    },
    {
      "name": "body_backspikes",
      "directions": 4
    },
    {
      "name": "snout_splotch_primary",
      "directions": 4
    },
    {
      "name": "snout_splotch_secondary",
      "directions": 4
    },
    {
      "name": "frills_neckfull",
      "directions": 4
    }
  ]
}