{
    "version": 1,
    "size": {
        "x": 32,
        "y": 32
    },
    "license": "CC-BY-SA-3.0",
    "copyright": "Taken from space-wizards ig",
    "states": [
        {
            "name": "liz_body_backspikes"
        },
        {
            "name": "liz_body_underbelly"
        },
        {
            "name": "liz_snout_round",
            "directions": 4
        },
        {
            "name": "liz_snout_sharp",
            "directions": 4
        }
    ]
}
